{
	"info": {
		"_postman_id": "9182957f-13ea-4636-aaa7-35db46b48141",
		"name": "InternshipBackend",
		"schema": "https://schema.getpostman.com/json/collection/v2.1.0/collection.json",
		"_exporter_id": "12400873"
	},
	"item": [
		{
			"name": "users",
			"item": [
				{
					"name": "register",
					"request": {
						"method": "POST",
						"header": [],
						"body": {
							"mode": "raw",
							"raw": "{\n    \"email\":\"testnotifications16@test.name\",\n    \"password\":\"password\",\n    \"repeated_password\":\"password\"\n}",
							"options": {
								"raw": {
									"language": "json"
								}
							}
						},
						"url": {
							"raw": "{{url}}/api/users/",
							"host": [
								"{{url}}"
							],
							"path": [
								"api",
								"users",
								""
							]
						}
					},
					"response": [
						{
							"name": "try prohibited fields",
							"originalRequest": {
								"method": "POST",
								"header": [],
								"body": {
									"mode": "raw",
									"raw": "{\n    \"email\":\"testnotifications16@test.name\",\n    \"username\": \"testname\",\n    \"first_name\": \"testname\",\n    \"last_name\": \"testname\",\n    \"password\":\"password\",\n    \"repeated_password\":\"password\"\n}",
									"options": {
										"raw": {
											"language": "json"
										}
									}
								},
								"url": {
									"raw": "{{url}}/api/users/",
									"host": [
										"{{url}}"
									],
									"path": [
										"api",
										"users",
										""
									]
								}
							},
							"status": "Internal Server Error",
							"code": 500,
							"_postman_previewlanguage": "json",
							"header": [
								{
									"key": "Server",
									"value": "nginx/1.24.0"
								},
								{
									"key": "Content-Type",
									"value": "application/json"
								},
								{
									"key": "Transfer-Encoding",
									"value": "chunked"
								},
								{
									"key": "Connection",
									"value": "keep-alive"
								},
								{
									"key": "X-Powered-By",
									"value": "PHP/8.1.19"
								},
								{
									"key": "Cache-Control",
									"value": "no-cache, private"
								},
								{
									"key": "Date",
									"value": "Tue, 18 Jul 2023 15:48:32 GMT"
								},
								{
									"key": "X-RateLimit-Limit",
									"value": "60"
								},
								{
									"key": "X-RateLimit-Remaining",
									"value": "58"
								},
								{
									"key": "Access-Control-Allow-Origin",
									"value": "*"
								}
							],
							"cookie": [],
							"body": "{\n    \"error\": \"The username field is prohibited. (and 2 more errors)\"\n}"
						},
						{
							"name": "successful registration",
							"originalRequest": {
								"method": "POST",
								"header": [],
								"body": {
									"mode": "raw",
									"raw": "{\n    \"email\":\"testnotifications16@test.name\",\n    \"password\":\"password\",\n    \"repeated_password\":\"password\"\n}",
									"options": {
										"raw": {
											"language": "json"
										}
									}
								},
								"url": {
									"raw": "{{url}}/api/users/",
									"host": [
										"{{url}}"
									],
									"path": [
										"api",
										"users",
										""
									]
								}
							},
							"status": "Created",
							"code": 201,
							"_postman_previewlanguage": "json",
							"header": [
								{
									"key": "Server",
									"value": "nginx/1.24.0"
								},
								{
									"key": "Content-Type",
									"value": "application/json"
								},
								{
									"key": "Transfer-Encoding",
									"value": "chunked"
								},
								{
									"key": "Connection",
									"value": "keep-alive"
								},
								{
									"key": "X-Powered-By",
									"value": "PHP/8.1.19"
								},
								{
									"key": "Cache-Control",
									"value": "no-cache, private"
								},
								{
									"key": "Date",
									"value": "Tue, 18 Jul 2023 15:49:15 GMT"
								},
								{
									"key": "X-RateLimit-Limit",
									"value": "60"
								},
								{
									"key": "X-RateLimit-Remaining",
									"value": "59"
								},
								{
									"key": "Access-Control-Allow-Origin",
									"value": "*"
								}
							],
							"cookie": [],
							"body": "{\n    \"data\": {\n        \"id\": 4,\n        \"username\": null,\n        \"first_name\": null,\n        \"last_name\": null,\n        \"email\": \"testnotifications16@test.name\",\n        \"created_at\": \"2023-07-18T15:49:15.000000Z\",\n        \"updated_at\": \"2023-07-18T15:49:15.000000Z\"\n    }\n}"
						}
					]
				}
			]
		},
		{
			"name": "auth",
			"item": [
				{
					"name": "login",
					"request": {
						"method": "POST",
						"header": [],
						"body": {
							"mode": "raw",
							"raw": "{\n    \"email\":\"admin@mail.com\",\n    \"password\":\"password\"\n}",
							"options": {
								"raw": {
									"language": "json"
								}
							}
						},
						"url": {
							"raw": "{{url}}/api/auth/login",
							"host": [
								"{{url}}"
							],
							"path": [
								"api",
								"auth",
								"login"
							]
						}
					},
					"response": [
						{
							"name": "login",
							"originalRequest": {
								"method": "POST",
								"header": [],
								"body": {
									"mode": "raw",
									"raw": "{\n    \"email\":\"admin@mail.com\",\n    \"password\":\"password\"\n}",
									"options": {
										"raw": {
											"language": "json"
										}
									}
								},
								"url": {
									"raw": "{{url}}/api/auth/login",
									"host": [
										"{{url}}"
									],
									"path": [
										"api",
										"auth",
										"login"
									]
								}
							},
							"status": "OK",
							"code": 200,
							"_postman_previewlanguage": "json",
							"header": [
								{
									"key": "Server",
									"value": "nginx/1.24.0"
								},
								{
									"key": "Content-Type",
									"value": "application/json"
								},
								{
									"key": "Transfer-Encoding",
									"value": "chunked"
								},
								{
									"key": "Connection",
									"value": "keep-alive"
								},
								{
									"key": "X-Powered-By",
									"value": "PHP/8.1.19"
								},
								{
									"key": "Cache-Control",
									"value": "no-cache, private"
								},
								{
									"key": "Date",
									"value": "Wed, 19 Jul 2023 15:36:59 GMT"
								},
								{
									"key": "X-RateLimit-Limit",
									"value": "60"
								},
								{
									"key": "X-RateLimit-Remaining",
									"value": "57"
								},
								{
									"key": "Access-Control-Allow-Origin",
									"value": "*"
								}
							],
							"cookie": [],
							"body": "{\n    \"data\": {\n        \"access_token\": \"eyJ0eXAiOiJKV1QiLCJhbGciOiJIUzI1NiJ9.eyJpc3MiOiJodHRwOi8vbG9jYWxob3N0OjgwODAvYXBpL2F1dGgvbG9naW4iLCJpYXQiOjE2ODk3ODEwMTksImV4cCI6MTY4OTc4NDYxOSwibmJmIjoxNjg5NzgxMDE5LCJqdGkiOiIzZ0VITTQ3endYOU5IQ3lnIiwic3ViIjoiMSIsInBydiI6IjIzYmQ1Yzg5NDlmNjAwYWRiMzllNzAxYzQwMDg3MmRiN2E1OTc2ZjcifQ.3TDCkDrfVBuuPc0lzrwOw7RIEljpGBwwjM1DJfs01YY\",\n        \"token_type\": \"bearer\",\n        \"expires_in\": 3600\n    }\n}"
						}
					]
				}
			]
		},
		{
			"name": "vacation spots",
			"item": [
				{
					"name": "list",
					"request": {
						"method": "GET",
						"header": [],
						"url": {
							"raw": "{{url}}/api/spots",
							"host": [
								"{{url}}"
							],
							"path": [
								"api",
								"spots"
							]
						}
					},
					"response": [
						{
							"name": "list",
							"originalRequest": {
								"method": "GET",
								"header": [],
								"url": {
									"raw": "{{url}}/api/spots",
									"host": [
										"{{url}}"
									],
									"path": [
										"api",
										"spots"
									]
								}
							},
							"status": "OK",
							"code": 200,
							"_postman_previewlanguage": "json",
							"header": [
								{
									"key": "Server",
									"value": "nginx/1.24.0"
								},
								{
									"key": "Content-Type",
									"value": "application/json"
								},
								{
									"key": "Transfer-Encoding",
									"value": "chunked"
								},
								{
									"key": "Connection",
									"value": "keep-alive"
								},
								{
									"key": "X-Powered-By",
									"value": "PHP/8.1.19"
								},
								{
									"key": "Cache-Control",
									"value": "no-cache, private"
								},
								{
									"key": "Date",
									"value": "Thu, 20 Jul 2023 13:14:06 GMT"
								},
								{
									"key": "X-RateLimit-Limit",
									"value": "60"
								},
								{
									"key": "X-RateLimit-Remaining",
									"value": "56"
								},
								{
									"key": "Access-Control-Allow-Origin",
									"value": "*"
								}
							],
							"cookie": [],
							"body": "{\n    \"data\": [\n        {\n            \"id\": 1,\n            \"name\": \"reiciendis\",\n            \"description\": \"Sit qui fugit dolores mollitia rerum. Dolore placeat soluta sapiente blanditiis. Sit placeat nisi nesciunt animi ut.\",\n            \"latitude\": \"-19.331945\",\n            \"longitude\": \"-99.795269\",\n            \"average_score\": \"0\",\n            \"country\": \"Russia\",\n            \"created_at\": \"2023-07-17T15:52:16.000000Z\",\n            \"updated_at\": \"2023-07-17T15:52:16.000000Z\",\n            \"spot_category_id\": 1\n        },\n        {\n            \"id\": 2,\n            \"name\": \"et\",\n            \"description\": \"Omnis id suscipit molestias neque. Ut qui aut natus et ipsum. Nulla laboriosam ipsa cupiditate qui. Temporibus doloremque ducimus sint velit rerum.\",\n            \"latitude\": \"54.396384\",\n            \"longitude\": \"158.507714\",\n            \"average_score\": \"0\",\n            \"country\": \"Germany\",\n            \"created_at\": \"2023-07-17T15:52:16.000000Z\",\n            \"updated_at\": \"2023-07-17T15:52:16.000000Z\",\n            \"spot_category_id\": 1\n        },\n        {\n            \"id\": 3,\n            \"name\": \"fugiat\",\n            \"description\": \"Quas aliquam rerum deleniti nihil omnis et. Et ratione sapiente facere aperiam ut. Quis provident ut iure blanditiis quas.\",\n            \"latitude\": \"-23.990805\",\n            \"longitude\": \"162.609538\",\n            \"average_score\": \"0\",\n            \"country\": \"Spain\",\n            \"created_at\": \"2023-07-17T15:52:16.000000Z\",\n            \"updated_at\": \"2023-07-17T15:52:16.000000Z\",\n            \"spot_category_id\": 1\n        },\n        {\n            \"id\": 4,\n            \"name\": \"sit\",\n            \"description\": \"Nihil sed natus aperiam in mollitia. Voluptas quas velit ratione neque qui. Sint tempore laborum officiis ea dolores qui mollitia. Eaque et corporis in aspernatur ullam unde mollitia.\",\n            \"latitude\": \"-4.121573\",\n            \"longitude\": \"135.034675\",\n            \"average_score\": \"0\",\n            \"country\": \"Italy\",\n            \"created_at\": \"2023-07-17T15:52:16.000000Z\",\n            \"updated_at\": \"2023-07-17T15:52:16.000000Z\",\n            \"spot_category_id\": 2\n        },\n        {\n            \"id\": 5,\n            \"name\": \"ex\",\n            \"description\": \"Excepturi ratione qui deserunt laborum iste molestiae et. Aliquid natus quia cupiditate aut consequatur. Corporis asperiores nihil totam quam amet. Nihil aut nam dicta laboriosam et.\",\n            \"latitude\": \"-72.142465\",\n            \"longitude\": \"-44.400849\",\n            \"average_score\": \"0\",\n            \"country\": \"Japan\",\n            \"created_at\": \"2023-07-17T15:52:16.000000Z\",\n            \"updated_at\": \"2023-07-17T15:52:16.000000Z\",\n            \"spot_category_id\": 2\n        },\n        {\n            \"id\": 6,\n            \"name\": \"numquam\",\n            \"description\": \"Nemo dicta tempore veritatis dolorem placeat. Rerum et voluptas est tempora. Autem ex nam debitis. Enim et iste maxime sit nisi. Dolorem dolore voluptatem dolore voluptates sint et ut.\",\n            \"latitude\": \"-80.897059\",\n            \"longitude\": \"64.422536\",\n            \"average_score\": \"0\",\n            \"country\": \"Japan\",\n            \"created_at\": \"2023-07-17T15:52:16.000000Z\",\n            \"updated_at\": \"2023-07-17T15:52:16.000000Z\",\n            \"spot_category_id\": 2\n        },\n        {\n            \"id\": 7,\n            \"name\": \"delectus\",\n            \"description\": \"Dolores velit voluptatem autem eaque dolorem. Sint dolores dolor alias occaecati. Qui aut asperiores sint cupiditate perferendis. Pariatur odio fugiat consequatur totam velit quia.\",\n            \"latitude\": \"-36.49552\",\n            \"longitude\": \"-72.881158\",\n            \"average_score\": \"0\",\n            \"country\": \"United Kingdom\",\n            \"created_at\": \"2023-07-17T15:52:16.000000Z\",\n            \"updated_at\": \"2023-07-17T15:52:16.000000Z\",\n            \"spot_category_id\": 3\n        },\n        {\n            \"id\": 8,\n            \"name\": \"rerum\",\n            \"description\": \"Est velit autem dolor provident corporis culpa dolorum. At odio rem aut est voluptatum est molestiae. At cupiditate et consequuntur excepturi aut qui. Ut voluptatem aspernatur aut quibusdam.\",\n            \"latitude\": \"54.45707\",\n            \"longitude\": \"-126.589051\",\n            \"average_score\": \"0\",\n            \"country\": \"Italy\",\n            \"created_at\": \"2023-07-17T15:52:16.000000Z\",\n            \"updated_at\": \"2023-07-17T15:52:16.000000Z\",\n            \"spot_category_id\": 3\n        },\n        {\n            \"id\": 9,\n            \"name\": \"non\",\n            \"description\": \"Rerum vel aliquid itaque delectus. Inventore nihil fugiat quo culpa. Consequatur placeat facere expedita possimus et provident.\",\n            \"latitude\": \"87.838569\",\n            \"longitude\": \"-45.882122\",\n            \"average_score\": \"0\",\n            \"country\": \"China\",\n            \"created_at\": \"2023-07-17T15:52:16.000000Z\",\n            \"updated_at\": \"2023-07-17T15:52:16.000000Z\",\n            \"spot_category_id\": 3\n        },\n        {\n            \"id\": 10,\n            \"name\": \"aut\",\n            \"description\": \"Quidem voluptatem fugiat consequatur perferendis at molestiae. Accusantium iste autem ea dolor rerum est eligendi. Quae ut voluptate est et.\",\n            \"latitude\": \"-2.695104\",\n            \"longitude\": \"-114.887519\",\n            \"average_score\": \"0\",\n            \"country\": \"Japan\",\n            \"created_at\": \"2023-07-17T15:52:16.000000Z\",\n            \"updated_at\": \"2023-07-17T15:52:16.000000Z\",\n            \"spot_category_id\": 4\n        },\n        {\n            \"id\": 11,\n            \"name\": \"quae\",\n            \"description\": \"Quo est est ut qui. Error similique ducimus rerum est et tempora assumenda. Aut sint et eum tempore ea adipisci eos.\",\n            \"latitude\": \"-21.501843\",\n            \"longitude\": \"-109.8639\",\n            \"average_score\": \"0\",\n            \"country\": \"Germany\",\n            \"created_at\": \"2023-07-17T15:52:16.000000Z\",\n            \"updated_at\": \"2023-07-17T15:52:16.000000Z\",\n            \"spot_category_id\": 4\n        },\n        {\n            \"id\": 12,\n            \"name\": \"in\",\n            \"description\": \"Tempore repellat quo possimus. Aut at libero commodi ea omnis. Esse veniam doloribus quo quia et nisi. Aspernatur earum illo non temporibus consequuntur voluptate.\",\n            \"latitude\": \"-23.831157\",\n            \"longitude\": \"151.508922\",\n            \"average_score\": \"0\",\n            \"country\": \"Russia\",\n            \"created_at\": \"2023-07-17T15:52:16.000000Z\",\n            \"updated_at\": \"2023-07-17T15:52:16.000000Z\",\n            \"spot_category_id\": 4\n        },\n        {\n            \"id\": 19,\n            \"name\": \"Чегет1\",\n            \"description\": \"Чеге́т — неофициальное устоявшееся название горы Кавказа, с вершинами Донгуз-Орунбаши и Азаучегет-Карабаши, в Приэльбрусье, популярное место туризма и центр горнолыжного спорта. Расположена в Кабардино-Балкарской Республике Российской Федерации. Знаменита своими «чёрными трассами».\",\n            \"latitude\": \"43°14′41″ с. ш.\",\n            \"longitude\": \"42°31′17″ в. д.\",\n            \"average_score\": \"0\",\n            \"country\": \"Russia\",\n            \"created_at\": \"2023-07-20T13:13:56.000000Z\",\n            \"updated_at\": \"2023-07-20T13:13:56.000000Z\",\n            \"spot_category_id\": 1\n        },\n        {\n            \"id\": 16,\n            \"name\": \"Чегет\",\n            \"description\": \"Чегет — неофициальное устоявшееся название горы Кавказа, с вершинами Донгуз-Орунбаши и Азаучегет-Карабаши, в Приэльбрусье, популярное место туризма и центр горнолыжного спорта. Расположена в Кабардино-Балкарской Республике Российской Федерации. Знаменита своими «чёрными трассами».\",\n            \"latitude\": \"43°14′41″ с. ш.\",\n            \"longitude\": \"42°31′17″ в. д.\",\n            \"average_score\": \"0\",\n            \"country\": \"Russia\",\n            \"created_at\": \"2023-07-19T15:47:02.000000Z\",\n            \"updated_at\": \"2023-07-20T13:13:45.000000Z\",\n            \"spot_category_id\": 4\n        }\n    ],\n    \"links\": {\n        \"first\": \"http://localhost:8080/api/spots?page=1\",\n        \"last\": \"http://localhost:8080/api/spots?page=1\",\n        \"prev\": null,\n        \"next\": null\n    },\n    \"meta\": {\n        \"current_page\": 1,\n        \"from\": 1,\n        \"last_page\": 1,\n        \"links\": [\n            {\n                \"url\": null,\n                \"label\": \"&laquo; Previous\",\n                \"active\": false\n            },\n            {\n                \"url\": \"http://localhost:8080/api/spots?page=1\",\n                \"label\": \"1\",\n                \"active\": true\n            },\n            {\n                \"url\": null,\n                \"label\": \"Next &raquo;\",\n                \"active\": false\n            }\n        ],\n        \"path\": \"http://localhost:8080/api/spots\",\n        \"per_page\": 15,\n        \"to\": 14,\n        \"total\": 14\n    }\n}"
						}
					]
				},
				{
					"name": "create",
					"request": {
						"method": "POST",
						"header": [],
						"body": {
							"mode": "raw",
							"raw": "{\n    \"name\":\"Чегет1\",\n    \"description\":\"Чеге́т — неофициальное устоявшееся название горы Кавказа, с вершинами Донгуз-Орунбаши и Азаучегет-Карабаши, в Приэльбрусье, популярное место туризма и центр горнолыжного спорта. Расположена в Кабардино-Балкарской Республике Российской Федерации. Знаменита своими «чёрными трассами».\",\n    \"latitude\":\"43°14′41″ с. ш.\",\n    \"longitude\":\"42°31′17″ в. д.\",\n    \"spot_category_id\":\"1\",\n    \"country\":\"Russia\"\n}",
							"options": {
								"raw": {
									"language": "json"
								}
							}
						},
						"url": {
							"raw": "{{url}}/api/spots",
							"host": [
								"{{url}}"
							],
							"path": [
								"api",
								"spots"
							]
						}
					},
					"response": [
						{
							"name": "create",
							"originalRequest": {
								"method": "POST",
								"header": [],
								"body": {
									"mode": "raw",
									"raw": "{\n    \"name\":\"Чегет1\",\n    \"description\":\"Чеге́т — неофициальное устоявшееся название горы Кавказа, с вершинами Донгуз-Орунбаши и Азаучегет-Карабаши, в Приэльбрусье, популярное место туризма и центр горнолыжного спорта. Расположена в Кабардино-Балкарской Республике Российской Федерации. Знаменита своими «чёрными трассами».\",\n    \"latitude\":\"43°14′41″ с. ш.\",\n    \"longitude\":\"42°31′17″ в. д.\",\n    \"spot_category_id\":\"1\",\n    \"country\":\"Russia\"\n}",
									"options": {
										"raw": {
											"language": "json"
										}
									}
								},
								"url": {
									"raw": "{{url}}/api/spots",
									"host": [
										"{{url}}"
									],
									"path": [
										"api",
										"spots"
									]
								}
							},
							"status": "Created",
							"code": 201,
							"_postman_previewlanguage": "json",
							"header": [
								{
									"key": "Server",
									"value": "nginx/1.24.0"
								},
								{
									"key": "Content-Type",
									"value": "application/json"
								},
								{
									"key": "Transfer-Encoding",
									"value": "chunked"
								},
								{
									"key": "Connection",
									"value": "keep-alive"
								},
								{
									"key": "X-Powered-By",
									"value": "PHP/8.1.19"
								},
								{
									"key": "Cache-Control",
									"value": "no-cache, private"
								},
								{
									"key": "Date",
									"value": "Thu, 20 Jul 2023 13:13:56 GMT"
								},
								{
									"key": "X-RateLimit-Limit",
									"value": "60"
								},
								{
									"key": "X-RateLimit-Remaining",
									"value": "57"
								},
								{
									"key": "Access-Control-Allow-Origin",
									"value": "*"
								}
							],
							"cookie": [],
							"body": "{\n    \"data\": {\n        \"id\": 19,\n        \"name\": \"Чегет1\",\n        \"description\": \"Чеге́т — неофициальное устоявшееся название горы Кавказа, с вершинами Донгуз-Орунбаши и Азаучегет-Карабаши, в Приэльбрусье, популярное место туризма и центр горнолыжного спорта. Расположена в Кабардино-Балкарской Республике Российской Федерации. Знаменита своими «чёрными трассами».\",\n        \"latitude\": \"43°14′41″ с. ш.\",\n        \"longitude\": \"42°31′17″ в. д.\",\n        \"average_score\": \"0\",\n        \"country\": \"Russia\",\n        \"created_at\": \"2023-07-20T13:13:56.000000Z\",\n        \"updated_at\": \"2023-07-20T13:13:56.000000Z\",\n        \"spot_category_id\": 1\n    }\n}"
						}
					]
				},
				{
					"name": "replace",
					"request": {
						"method": "PUT",
						"header": [],
						"body": {
							"mode": "raw",
							"raw": "{\n    \"name\":\"Чегет1\",\n    \"description\":\"Чегет — неофициальное устоявшееся название горы Кавказа, с вершинами Донгуз-Орунбаши и Азаучегет-Карабаши, в Приэльбрусье, популярное место туризма и центр горнолыжного спорта. Расположена в Кабардино-Балкарской Республике Российской Федерации. Знаменита своими «чёрными трассами».\",\n    \"latitude\":\"43°14′41″ с. ш.\",\n    \"longitude\":\"42°31′17″ в. д.\",\n    \"spot_category_id\":\"4\",\n    \"country\":\"Russia\"\n}",
							"options": {
								"raw": {
									"language": "json"
								}
							}
						},
						"url": {
							"raw": "{{url}}/api/spots/16",
							"host": [
								"{{url}}"
							],
							"path": [
								"api",
								"spots",
								"16"
							]
						}
					},
					"response": [
						{
							"name": "replace",
							"originalRequest": {
								"method": "PUT",
								"header": [],
								"body": {
									"mode": "raw",
									"raw": "{\n    \"name\":\"Чегет1\",\n    \"description\":\"Чегет — неофициальное устоявшееся название горы Кавказа, с вершинами Донгуз-Орунбаши и Азаучегет-Карабаши, в Приэльбрусье, популярное место туризма и центр горнолыжного спорта. Расположена в Кабардино-Балкарской Республике Российской Федерации. Знаменита своими «чёрными трассами».\",\n    \"latitude\":\"43°14′41″ с. ш.\",\n    \"longitude\":\"42°31′17″ в. д.\",\n    \"spot_category_id\":\"4\",\n    \"country\":\"Russia\"\n}",
									"options": {
										"raw": {
											"language": "json"
										}
									}
								},
								"url": {
									"raw": "{{url}}/api/spots/16",
									"host": [
										"{{url}}"
									],
									"path": [
										"api",
										"spots",
										"16"
									]
								}
							},
							"status": "OK",
							"code": 200,
							"_postman_previewlanguage": "json",
							"header": [
								{
									"key": "Server",
									"value": "nginx/1.24.0"
								},
								{
									"key": "Content-Type",
									"value": "application/json"
								},
								{
									"key": "Transfer-Encoding",
									"value": "chunked"
								},
								{
									"key": "Connection",
									"value": "keep-alive"
								},
								{
									"key": "X-Powered-By",
									"value": "PHP/8.1.19"
								},
								{
									"key": "Cache-Control",
									"value": "no-cache, private"
								},
								{
									"key": "Date",
									"value": "Thu, 20 Jul 2023 13:13:19 GMT"
								},
								{
									"key": "X-RateLimit-Limit",
									"value": "60"
								},
								{
									"key": "X-RateLimit-Remaining",
									"value": "59"
								},
								{
									"key": "Access-Control-Allow-Origin",
									"value": "*"
								}
							],
							"cookie": [],
							"body": "{\n    \"data\": {\n        \"id\": 16,\n        \"name\": \"Чегет1\",\n        \"description\": \"Чегет — неофициальное устоявшееся название горы Кавказа, с вершинами Донгуз-Орунбаши и Азаучегет-Карабаши, в Приэльбрусье, популярное место туризма и центр горнолыжного спорта. Расположена в Кабардино-Балкарской Республике Российской Федерации. Знаменита своими «чёрными трассами».\",\n        \"latitude\": \"43°14′41″ с. ш.\",\n        \"longitude\": \"42°31′17″ в. д.\",\n        \"average_score\": \"0\",\n        \"country\": \"Russia\",\n        \"created_at\": \"2023-07-19T15:47:02.000000Z\",\n        \"updated_at\": \"2023-07-20T13:13:19.000000Z\",\n        \"spot_category_id\": 4\n    }\n}"
						}
					]
				},
				{
					"name": "show",
					"request": {
						"method": "GET",
						"header": [],
						"url": {
							"raw": "{{url}}/api/spots/16",
							"host": [
								"{{url}}"
							],
							"path": [
								"api",
								"spots",
								"16"
							]
						}
					},
					"response": [
						{
							"name": "show",
							"originalRequest": {
								"method": "GET",
								"header": [],
								"url": {
									"raw": "{{url}}/api/spots/16",
									"host": [
										"{{url}}"
									],
									"path": [
										"api",
										"spots",
										"16"
									]
								}
							},
							"status": "OK",
							"code": 200,
							"_postman_previewlanguage": "json",
							"header": [
								{
									"key": "Server",
									"value": "nginx/1.24.0"
								},
								{
									"key": "Content-Type",
									"value": "application/json"
								},
								{
									"key": "Transfer-Encoding",
									"value": "chunked"
								},
								{
									"key": "Connection",
									"value": "keep-alive"
								},
								{
									"key": "X-Powered-By",
									"value": "PHP/8.1.19"
								},
								{
									"key": "Cache-Control",
									"value": "no-cache, private"
								},
								{
									"key": "Date",
									"value": "Thu, 20 Jul 2023 13:11:43 GMT"
								},
								{
									"key": "X-RateLimit-Limit",
									"value": "60"
								},
								{
									"key": "X-RateLimit-Remaining",
									"value": "58"
								},
								{
									"key": "Access-Control-Allow-Origin",
									"value": "*"
								}
							],
							"cookie": [],
							"body": "{\n    \"data\": {\n        \"id\": 16,\n        \"name\": \"Чегет\",\n        \"description\": \"Чегет — неофициальное устоявшееся название горы Кавказа, с вершинами Донгуз-Орунбаши и Азаучегет-Карабаши, в Приэльбрусье, популярное место туризма и центр горнолыжного спорта. Расположена в Кабардино-Балкарской Республике Российской Федерации. Знаменита своими «чёрными трассами».\",\n        \"latitude\": \"43°14′41″ с. ш.\",\n        \"longitude\": \"42°31′17″ в. д.\",\n        \"average_score\": \"0\",\n        \"country\": \"Russia\",\n        \"created_at\": \"2023-07-19T15:47:02.000000Z\",\n        \"updated_at\": \"2023-07-19T15:59:55.000000Z\",\n        \"spot_category_id\": 4\n    }\n}"
						}
					]
				},
				{
					"name": "delete",
					"request": {
						"method": "DELETE",
						"header": [],
						"url": {
							"raw": "{{url}}/api/spots/18",
							"host": [
								"{{url}}"
							],
							"path": [
								"api",
								"spots",
								"18"
							]
						}
					},
					"response": [
						{
							"name": "delete",
							"originalRequest": {
								"method": "DELETE",
								"header": [],
								"url": {
									"raw": "{{url}}/api/spots/18",
									"host": [
										"{{url}}"
									],
									"path": [
										"api",
										"spots",
										"18"
									]
								}
							},
							"status": "OK",
							"code": 200,
							"_postman_previewlanguage": "json",
							"header": [
								{
									"key": "Server",
									"value": "nginx/1.24.0"
								},
								{
									"key": "Content-Type",
									"value": "application/json"
								},
								{
									"key": "Transfer-Encoding",
									"value": "chunked"
								},
								{
									"key": "Connection",
									"value": "keep-alive"
								},
								{
									"key": "X-Powered-By",
									"value": "PHP/8.1.19"
								},
								{
									"key": "Cache-Control",
									"value": "no-cache, private"
								},
								{
									"key": "Date",
									"value": "Thu, 20 Jul 2023 13:11:20 GMT"
								},
								{
									"key": "X-RateLimit-Limit",
									"value": "60"
								},
								{
									"key": "X-RateLimit-Remaining",
									"value": "59"
								},
								{
									"key": "Access-Control-Allow-Origin",
									"value": "*"
								}
							],
							"cookie": [],
							"body": "{\n    \"data\": {\n        \"id\": 18,\n        \"name\": \"Чегет1\",\n        \"description\": \"Чеге́т — неофициальное устоявшееся название горы Кавказа, с вершинами Донгуз-Орунбаши и Азаучегет-Карабаши, в Приэльбрусье, популярное место туризма и центр горнолыжного спорта. Расположена в Кабардино-Балкарской Республике Российской Федерации. Знаменита своими «чёрными трассами».\",\n        \"latitude\": \"43°14′41″ с. ш.\",\n        \"longitude\": \"42°31′17″ в. д.\",\n        \"average_score\": \"0\",\n        \"country\": \"Russia\",\n        \"created_at\": \"2023-07-19T16:01:03.000000Z\",\n        \"updated_at\": \"2023-07-19T16:01:03.000000Z\",\n        \"spot_category_id\": 1\n    }\n}"
						}
					]
				},
				{
					"name": "update",
					"request": {
						"method": "PATCH",
						"header": [],
						"body": {
							"mode": "raw",
							"raw": "{\n    \"name\":\"Чегет\"\n}",
							"options": {
								"raw": {
									"language": "json"
								}
							}
						},
						"url": {
							"raw": "{{url}}/api/spots/16",
							"host": [
								"{{url}}"
							],
							"path": [
								"api",
								"spots",
								"16"
							]
						}
					},
					"response": [
						{
							"name": "update",
							"originalRequest": {
								"method": "PATCH",
								"header": [],
								"body": {
									"mode": "raw",
									"raw": "{\n    \"name\":\"Чегет\"\n}",
									"options": {
										"raw": {
											"language": "json"
										}
									}
								},
								"url": {
									"raw": "{{url}}/api/spots/16",
									"host": [
										"{{url}}"
									],
									"path": [
										"api",
										"spots",
										"16"
									]
								}
							},
							"status": "OK",
							"code": 200,
							"_postman_previewlanguage": "json",
							"header": [
								{
									"key": "Server",
									"value": "nginx/1.24.0"
								},
								{
									"key": "Content-Type",
									"value": "application/json"
								},
								{
									"key": "Transfer-Encoding",
									"value": "chunked"
								},
								{
									"key": "Connection",
									"value": "keep-alive"
								},
								{
									"key": "X-Powered-By",
									"value": "PHP/8.1.19"
								},
								{
									"key": "Cache-Control",
									"value": "no-cache, private"
								},
								{
									"key": "Date",
									"value": "Thu, 20 Jul 2023 13:13:45 GMT"
								},
								{
									"key": "X-RateLimit-Limit",
									"value": "60"
								},
								{
									"key": "X-RateLimit-Remaining",
									"value": "58"
								},
								{
									"key": "Access-Control-Allow-Origin",
									"value": "*"
								}
							],
							"cookie": [],
							"body": "{\n    \"data\": {\n        \"id\": 16,\n        \"name\": \"Чегет\",\n        \"description\": \"Чегет — неофициальное устоявшееся название горы Кавказа, с вершинами Донгуз-Орунбаши и Азаучегет-Карабаши, в Приэльбрусье, популярное место туризма и центр горнолыжного спорта. Расположена в Кабардино-Балкарской Республике Российской Федерации. Знаменита своими «чёрными трассами».\",\n        \"latitude\": \"43°14′41″ с. ш.\",\n        \"longitude\": \"42°31′17″ в. д.\",\n        \"average_score\": \"0\",\n        \"country\": \"Russia\",\n        \"created_at\": \"2023-07-19T15:47:02.000000Z\",\n        \"updated_at\": \"2023-07-20T13:13:45.000000Z\",\n        \"spot_category_id\": 4\n    }\n}"
						}
					]
				}
			]
		},
		{
			"name": "vacation spots categories",
			"item": [
				{
					"name": "list",
					"request": {
						"method": "GET",
						"header": [],
						"url": {
							"raw": "{{url}}/api/categories",
							"host": [
								"{{url}}"
							],
							"path": [
								"api",
								"categories"
							]
						}
					},
					"response": [
						{
							"name": "list",
							"originalRequest": {
								"method": "GET",
								"header": [],
								"url": {
									"raw": "{{url}}/api/categories",
									"host": [
										"{{url}}"
									],
									"path": [
										"api",
										"categories"
									]
								}
							},
							"status": "OK",
							"code": 200,
							"_postman_previewlanguage": "json",
							"header": [
								{
									"key": "Server",
									"value": "nginx/1.24.0"
								},
								{
									"key": "Content-Type",
									"value": "application/json"
								},
								{
									"key": "Transfer-Encoding",
									"value": "chunked"
								},
								{
									"key": "Connection",
									"value": "keep-alive"
								},
								{
									"key": "X-Powered-By",
									"value": "PHP/8.1.19"
								},
								{
									"key": "Cache-Control",
									"value": "no-cache, private"
								},
								{
									"key": "Date",
									"value": "Thu, 20 Jul 2023 13:00:25 GMT"
								},
								{
									"key": "X-RateLimit-Limit",
									"value": "60"
								},
								{
									"key": "X-RateLimit-Remaining",
									"value": "58"
								},
								{
									"key": "Access-Control-Allow-Origin",
									"value": "*"
								}
							],
							"cookie": [],
							"body": "{\n    \"data\": [\n        {\n            \"id\": 1,\n            \"name\": \"mountain\",\n            \"created_at\": \"2023-07-17T15:52:16.000000Z\",\n            \"updated_at\": \"2023-07-17T15:52:16.000000Z\"\n        },\n        {\n            \"id\": 2,\n            \"name\": \"beach\",\n            \"created_at\": \"2023-07-17T15:52:16.000000Z\",\n            \"updated_at\": \"2023-07-17T15:52:16.000000Z\"\n        },\n        {\n            \"id\": 3,\n            \"name\": \"forest\",\n            \"created_at\": \"2023-07-17T15:52:16.000000Z\",\n            \"updated_at\": \"2023-07-17T15:52:16.000000Z\"\n        },\n        {\n            \"id\": 4,\n            \"name\": \"park\",\n            \"created_at\": \"2023-07-17T15:52:16.000000Z\",\n            \"updated_at\": \"2023-07-17T15:52:16.000000Z\"\n        }\n    ],\n    \"links\": {\n        \"first\": \"http://localhost:8080/api/categories?page=1\",\n        \"last\": \"http://localhost:8080/api/categories?page=1\",\n        \"prev\": null,\n        \"next\": null\n    },\n    \"meta\": {\n        \"current_page\": 1,\n        \"from\": 1,\n        \"last_page\": 1,\n        \"links\": [\n            {\n                \"url\": null,\n                \"label\": \"&laquo; Previous\",\n                \"active\": false\n            },\n            {\n                \"url\": \"http://localhost:8080/api/categories?page=1\",\n                \"label\": \"1\",\n                \"active\": true\n            },\n            {\n                \"url\": null,\n                \"label\": \"Next &raquo;\",\n                \"active\": false\n            }\n        ],\n        \"path\": \"http://localhost:8080/api/categories\",\n        \"per_page\": 15,\n        \"to\": 4,\n        \"total\": 4\n    }\n}"
						}
					]
				},
				{
					"name": "show",
					"request": {
						"method": "GET",
						"header": [],
						"url": {
							"raw": "{{url}}/api/categories/4",
							"host": [
								"{{url}}"
							],
							"path": [
								"api",
								"categories",
								"4"
							]
						}
					},
					"response": [
						{
							"name": "show",
							"originalRequest": {
								"method": "GET",
								"header": [],
								"url": {
									"raw": "{{url}}/api/categories/1",
									"host": [
										"{{url}}"
									],
									"path": [
										"api",
										"categories",
										"1"
									]
								}
							},
							"status": "OK",
							"code": 200,
							"_postman_previewlanguage": "json",
							"header": [
								{
									"key": "Server",
									"value": "nginx/1.24.0"
								},
								{
									"key": "Content-Type",
									"value": "application/json"
								},
								{
									"key": "Transfer-Encoding",
									"value": "chunked"
								},
								{
									"key": "Connection",
									"value": "keep-alive"
								},
								{
									"key": "X-Powered-By",
									"value": "PHP/8.1.19"
								},
								{
									"key": "Cache-Control",
									"value": "no-cache, private"
								},
								{
									"key": "Date",
									"value": "Thu, 20 Jul 2023 13:00:47 GMT"
								},
								{
									"key": "X-RateLimit-Limit",
									"value": "60"
								},
								{
									"key": "X-RateLimit-Remaining",
									"value": "57"
								},
								{
									"key": "Access-Control-Allow-Origin",
									"value": "*"
								}
							],
							"cookie": [],
							"body": "{\n    \"data\": {\n        \"id\": 1,\n        \"name\": \"mountain\",\n        \"created_at\": \"2023-07-17T15:52:16.000000Z\",\n        \"updated_at\": \"2023-07-17T15:52:16.000000Z\"\n    }\n}"
						}
					]
				},
				{
					"name": "create",
					"request": {
						"method": "POST",
						"header": [],
						"body": {
							"mode": "raw",
							"raw": "{\n    \"name\":\"lake\"\n}",
							"options": {
								"raw": {
									"language": "json"
								}
							}
						},
						"url": {
							"raw": "{{url}}/api/categories",
							"host": [
								"{{url}}"
							],
							"path": [
								"api",
								"categories"
							]
						}
					},
					"response": [
						{
							"name": "create",
							"originalRequest": {
								"method": "POST",
								"header": [],
								"body": {
									"mode": "raw",
									"raw": "{\n    \"name\":\"lake\"\n}",
									"options": {
										"raw": {
											"language": "json"
										}
									}
								},
								"url": {
									"raw": "{{url}}/api/categories",
									"host": [
										"{{url}}"
									],
									"path": [
										"api",
										"categories"
									]
								}
							},
							"status": "Created",
							"code": 201,
							"_postman_previewlanguage": "json",
							"header": [
								{
									"key": "Server",
									"value": "nginx/1.24.0"
								},
								{
									"key": "Content-Type",
									"value": "application/json"
								},
								{
									"key": "Transfer-Encoding",
									"value": "chunked"
								},
								{
									"key": "Connection",
									"value": "keep-alive"
								},
								{
									"key": "X-Powered-By",
									"value": "PHP/8.1.19"
								},
								{
									"key": "Cache-Control",
									"value": "no-cache, private"
								},
								{
									"key": "Date",
									"value": "Thu, 20 Jul 2023 13:01:32 GMT"
								},
								{
									"key": "X-RateLimit-Limit",
									"value": "60"
								},
								{
									"key": "X-RateLimit-Remaining",
									"value": "59"
								},
								{
									"key": "Access-Control-Allow-Origin",
									"value": "*"
								}
							],
							"cookie": [],
							"body": "{\n    \"data\": {\n        \"id\": 5,\n        \"name\": \"lake\",\n        \"created_at\": \"2023-07-20T13:01:32.000000Z\",\n        \"updated_at\": \"2023-07-20T13:01:32.000000Z\"\n    }\n}"
						}
					]
				},
				{
					"name": "replace",
					"request": {
						"method": "PUT",
						"header": [],
						"body": {
							"mode": "raw",
							"raw": "{\n    \"name\":\"lake\"\n}",
							"options": {
								"raw": {
									"language": "json"
								}
							}
						},
						"url": {
							"raw": "{{url}}/api/categories/4",
							"host": [
								"{{url}}"
							],
							"path": [
								"api",
								"categories",
								"4"
							]
						}
					},
					"response": [
						{
							"name": "replace",
							"originalRequest": {
								"method": "PUT",
								"header": [],
								"body": {
									"mode": "raw",
									"raw": "{\n    \"name\":\"lake1\"\n}",
									"options": {
										"raw": {
											"language": "json"
										}
									}
								},
								"url": {
									"raw": "{{url}}/api/categories/5",
									"host": [
										"{{url}}"
									],
									"path": [
										"api",
										"categories",
										"5"
									]
								}
							},
							"status": "OK",
							"code": 200,
							"_postman_previewlanguage": "json",
							"header": [
								{
									"key": "Server",
									"value": "nginx/1.24.0"
								},
								{
									"key": "Content-Type",
									"value": "application/json"
								},
								{
									"key": "Transfer-Encoding",
									"value": "chunked"
								},
								{
									"key": "Connection",
									"value": "keep-alive"
								},
								{
									"key": "X-Powered-By",
									"value": "PHP/8.1.19"
								},
								{
									"key": "Cache-Control",
									"value": "no-cache, private"
								},
								{
									"key": "Date",
									"value": "Thu, 20 Jul 2023 13:05:28 GMT"
								},
								{
									"key": "X-RateLimit-Limit",
									"value": "60"
								},
								{
									"key": "X-RateLimit-Remaining",
									"value": "56"
								},
								{
									"key": "Access-Control-Allow-Origin",
									"value": "*"
								}
							],
							"cookie": [],
							"body": "{\n    \"data\": {\n        \"id\": 5,\n        \"name\": \"lake1\",\n        \"created_at\": \"2023-07-20T13:01:32.000000Z\",\n        \"updated_at\": \"2023-07-20T13:05:28.000000Z\"\n    }\n}"
						}
					]
				},
				{
					"name": "delete",
					"request": {
						"method": "DELETE",
						"header": [],
						"url": {
							"raw": "{{url}}/api/categories/5",
							"host": [
								"{{url}}"
							],
							"path": [
								"api",
								"categories",
								"5"
							]
						}
					},
					"response": [
						{
							"name": "delete",
							"originalRequest": {
								"method": "DELETE",
								"header": [],
								"url": {
									"raw": "{{url}}/api/categories/5",
									"host": [
										"{{url}}"
									],
									"path": [
										"api",
										"categories",
										"5"
									]
								}
							},
							"status": "OK",
							"code": 200,
							"_postman_previewlanguage": "json",
							"header": [
								{
									"key": "Server",
									"value": "nginx/1.24.0"
								},
								{
									"key": "Content-Type",
									"value": "application/json"
								},
								{
									"key": "Transfer-Encoding",
									"value": "chunked"
								},
								{
									"key": "Connection",
									"value": "keep-alive"
								},
								{
									"key": "X-Powered-By",
									"value": "PHP/8.1.19"
								},
								{
									"key": "Cache-Control",
									"value": "no-cache, private"
								},
								{
									"key": "Date",
									"value": "Thu, 20 Jul 2023 13:09:15 GMT"
								},
								{
									"key": "X-RateLimit-Limit",
									"value": "60"
								},
								{
									"key": "X-RateLimit-Remaining",
									"value": "59"
								},
								{
									"key": "Access-Control-Allow-Origin",
									"value": "*"
								}
							],
							"cookie": [],
							"body": "{\n    \"data\": {\n        \"id\": 5,\n        \"name\": \"lake\",\n        \"created_at\": \"2023-07-20T13:01:32.000000Z\",\n        \"updated_at\": \"2023-07-20T13:05:46.000000Z\"\n    }\n}"
						}
					]
				},
				{
					"name": "update",
					"request": {
						"method": "PATCH",
						"header": [],
						"body": {
							"mode": "raw",
							"raw": "{\n    \"name\":\"lake1\"\n}",
							"options": {
								"raw": {
									"language": "json"
								}
							}
						},
						"url": {
							"raw": "{{url}}/api/categories/6",
							"host": [
								"{{url}}"
							],
							"path": [
								"api",
								"categories",
								"6"
							]
						}
					},
					"response": [
						{
							"name": "update",
							"originalRequest": {
								"method": "PATCH",
								"header": [],
								"body": {
									"mode": "raw",
									"raw": "{\n    \"name\":\"lake1\"\n}",
									"options": {
										"raw": {
											"language": "json"
										}
									}
								},
								"url": {
									"raw": "{{url}}/api/categories/6",
									"host": [
										"{{url}}"
									],
									"path": [
										"api",
										"categories",
										"6"
									]
								}
							},
							"status": "OK",
							"code": 200,
							"_postman_previewlanguage": "json",
							"header": [
								{
									"key": "Server",
									"value": "nginx/1.24.0"
								},
								{
									"key": "Content-Type",
									"value": "application/json"
								},
								{
									"key": "Transfer-Encoding",
									"value": "chunked"
								},
								{
									"key": "Connection",
									"value": "keep-alive"
								},
								{
									"key": "X-Powered-By",
									"value": "PHP/8.1.19"
								},
								{
									"key": "Cache-Control",
									"value": "no-cache, private"
								},
								{
									"key": "Date",
									"value": "Thu, 20 Jul 2023 13:10:12 GMT"
								},
								{
									"key": "X-RateLimit-Limit",
									"value": "60"
								},
								{
									"key": "X-RateLimit-Remaining",
									"value": "55"
								},
								{
									"key": "Access-Control-Allow-Origin",
									"value": "*"
								}
							],
							"cookie": [],
							"body": "{\n    \"data\": {\n        \"id\": 6,\n        \"name\": \"lake1\",\n        \"created_at\": \"2023-07-20T13:09:51.000000Z\",\n        \"updated_at\": \"2023-07-20T13:10:12.000000Z\"\n    }\n}"
						}
					]
				}
			]
		}
	],
	"event": [
		{
			"listen": "prerequest",
			"script": {
				"type": "text/javascript",
				"exec": [
					""
				]
			}
		},
		{
			"listen": "test",
			"script": {
				"type": "text/javascript",
				"exec": [
					""
				]
			}
		}
	],
	"variable": [
		{
			"key": "url",
			"value": "localhost:8080",
			"type": "string"
		}
	]
}